<?xml version="1.0" encoding="utf-8"?>
<!-- Generator: Adobe Illustrator 18.1.1, SVG Export Plug-In . SVG Version: 6.00 Build 0)  -->
<svg version="1.1" id="Layer_1" xmlns="http://www.w3.org/2000/svg" xmlns:xlink="http://www.w3.org/1999/xlink" x="0px" y="0px"
	 viewBox="-95 363 419.3 68" enable-background="new -95 363 419.3 68" xml:space="preserve">
<g>
	<g>
		<path fill="#5B585A" d="M64.4,429.1c-4.9,0-8.6,0.1-11.2,0.4c-0.5,0-0.7-1,0.1-1.2c2.3-0.6,4.7-0.5,5.9-1.2
			c0.7-0.4,1.2-3.3,1.3-27.5c0-1.4-0.1-2.3-0.7-2.6c-1.1-0.6-3.6-0.7-17.2-0.7s-16.1,0.1-17.2,0.7c-0.7,0.3-0.7,1.2-0.7,2.6
			c0.1,24.3,0.6,27.1,1.3,27.5c1.2,0.7,3.6,0.7,5.9,1.2c0.7,0.2,0.6,1.2,0.1,1.2c-2.6-0.3-6.2-0.4-11.2-0.4c-4.9,0-8.8,0.1-11.3,0.4
			c-0.6,0-0.7-1,0.1-1.2c2.2-0.6,4.9-0.5,6.1-1.2c0.7-0.5,1.3-2.9,1.3-30.8c0-28-0.6-30.4-1.3-30.9c-1.2-0.7-3.9-0.7-6.1-1.2
			C8.8,364,9,363,9.6,363c2.5,0.3,6.4,0.5,11.3,0.5s8.6-0.2,11.2-0.5c0.5,0,0.7,1-0.1,1.2c-2.3,0.6-4.7,0.6-5.9,1.2
			c-0.7,0.4-1.3,3.2-1.3,25.6c0,1.3,0.1,2.2,0.7,2.6c1.1,0.6,3.6,0.7,17.2,0.7s16.1-0.1,17.2-0.7c0.7-0.4,0.7-1.3,0.7-2.6
			c-0.1-22.4-0.6-25.2-1.3-25.6c-1.2-0.7-3.6-0.7-5.9-1.2c-0.8-0.2-0.6-1.2-0.1-1.2c2.6,0.3,6.2,0.5,11.2,0.5
			c4.9,0,8.8-0.2,11.4-0.5c0.5,0,0.7,1-0.2,1.2c-2.2,0.6-4.9,0.6-6.1,1.2c-0.7,0.5-1.3,2.9-1.3,30.9c0,27.9,0.6,30.3,1.3,30.8
			c1.2,0.7,3.9,0.7,6.1,1.2c0.8,0.2,0.7,1.2,0.2,1.2C73.3,429.2,69.4,429.1,64.4,429.1z"/>
	</g>
	<g>
		<path fill="#5B585A" d="M149,429.6c-5.3-0.3-13-0.5-23.4-0.5c-10.3,0-19.4,0-24.7,0.5c-0.5,0-0.7-1,0.1-1.2c2.3-0.6,5-0.6,6.1-1.2
			c0.8-0.5,1.3-2.9,1.3-30.9c0-27.9-0.5-30.4-1.3-30.8c-1.1-0.7-3.8-0.7-6.1-1.2c-0.7-0.2-0.6-1.2-0.1-1.2c2.5,0.3,6.4,0.4,11.3,0.4
			c5.2,0,8.8-0.2,11.2-0.4c0.6,0,0.7,1-0.1,1.2c-2.2,0.6-4.7,0.5-5.9,1.2c-0.7,0.4-1.2,2.9-1.2,30.8c0,28,0.5,29.2,1.2,29.7
			c1.2,0.7,5.7,1.1,10.8,1.1c10.7,0,13.6-0.8,15.9-2.6c2-1.6,5-8.3,6.1-12.5c0.1-0.3,1.6-0.2,1.4,0.3C151,414,149.7,429.2,149,429.6
			z"/>
	</g>
	<g>
		<path fill="#5B585A" d="M202.1,429.5c-2.3,0-9.7-0.4-14.7-0.4c-4.9,0-12.8,0.1-15.4,0.4c-0.5,0-0.7-1,0.2-1.2
			c2.2-0.6,4.9-0.5,6.1-1.2c0.7-0.5,1.2-2.9,1.2-30.8c0-28-0.5-30.4-1.2-30.9c-1.2-0.7-3.9-0.7-6.1-1.2c-0.9-0.2-0.7-1.2-0.3-1.2
			c2.6,0.3,9.9,0.5,14.8,0.5c5,0,11.4-0.5,14-0.5c24.5,0,35.9,15.4,35.9,33.8C236.6,414.7,221.6,429.5,202.1,429.5z M198.4,365.2
			c-4.9,0-8.7,0.6-9.9,1.2c-0.7,0.5-1.3,1.9-1.3,29.8c0,23.2,1.2,27.5,2.7,28.8c1.7,1.5,3.1,2.1,13,2.1c15.1,0,25-11.5,25-30.7
			C227.9,375.9,216.5,365.2,198.4,365.2z"/>
	</g>
	<g>
		<path fill="#5B585A" d="M323.7,364.2c-2.2,0.6-6.1,0.8-7.3,1.5c-1.7,0.9-2,2.7-2.1,30.6c-0.2,20.7,0.1,27.5,0.6,34.1
			c0.1,0.7-1.8,0.7-2,0.3c-15.1-18.6-36.1-43.1-46.2-54.7c-0.3-0.3-0.7-0.4-0.7,0.1c-0.1,5.6-0.3,11.4-0.4,20.2
			c-0.1,28,0.8,30,1.6,30.5c1.2,0.7,3.6,0.9,5.9,1.5c0.7,0.2,0.7,1.2,0.2,1.2c-2.6-0.3-4.8-0.4-9.8-0.4s-7.6,0.1-10.2,0.4
			c-0.5,0-0.7-1,0.1-1.2c2.3-0.6,5.3-0.8,6.5-1.5c2.4-1.4,3-2.8,3-30.5c0-22.6-1.3-26.4-3.1-28.4c-1.4-1.6-3.8-3.1-6.8-3.4
			c-0.8-0.1-0.7-1.2-0.2-1.2c2,0.2,3.5,0.3,7.3,0.2c3.3-0.2,5.1-0.3,5.9-0.5c0.3-0.1,0.8,0.2,0.9,0.4c8.3,10.4,32.6,39.3,43.5,51.8
			c0.4,0.4,0.8,0.4,0.8,0c0.1-5.7,0.3-10.5,0.4-18.9c0.2-28.2-1.1-30.1-1.9-30.6c-1.2-0.7-4.5-0.9-6.8-1.5c-0.8-0.2-0.7-1.2-0.2-1.2
			c2.5,0.3,6,0.5,11,0.5c4.9,0,7.6-0.2,10.1-0.5C324.3,363,324.6,364,323.7,364.2z"/>
	</g>
	<path fill="#5B585A" d="M-53.3,392.3v-0.7v-0.2c0-23.2,0.6-24.4,1.3-24.9c1.1-0.7,1.1-1.2,6-1.2c10,0,15.2,5,15.2,13.8
		c0,6.9-5,12.4-13,13.2c0.1,0,0.2,0,0.3,0c0.2,0,0.4,0.1,0.6,0.1c0.4,0,1-0.1,1.5-0.1c0.4,0,3.2-0.1,4,0c0.1,0,0.6,0,0.7,0
		c0.4,0,1.3,0,2.1,0c7.6-2.3,12.5-7.1,12.5-13.6c0-9.6-9.3-15.7-22.1-15.7c-2.6,0-4.6,0.5-9.6,0.5s-12.2-0.2-14.8-0.5
		c-0.5,0-0.7,1,0.1,1.2c2.3,0.6,5,0.6,6.2,1.2c0.8,0.5,1.2,2.6,1.3,26.2l0,0v0.5v2.3v0.6l0,0c0,0.4,0,0.8,0,1.2
		c0,27.9-0.5,30.3-1.2,30.8c-1.2,0.7-3.9,0.7-6.2,1.2c-0.7,0.2-0.6,1.2-0.1,1.2c2.6-0.3,10.5-0.4,15.4-0.4s8.6,0.4,10.8,0.4
		c14.2,0,24.8-7.2,24.8-18.7c0-7.2-5.3-14-16.8-16.5c-0.8,0-2.6,0.1-4.4-0.1c-0.2,0.1-0.8,0.1-1,0c-1,0.2-1.8,0.1-2.9,0.1
		c-0.7,0-2.3,0-2.3,0s-0.3,0-0.7,0c13.2,0,19.4,8.1,19.4,18c0,8.9-6,14.9-15.2,14.9c-6.6,0-8.2-0.4-9.9-1.9
		c-1.5-1.3-1.9-5.9-1.9-28.7v-1.6v-0.6L-53.3,392.3L-53.3,392.3z"/>
	<g>
		<path fill="#5B585A" d="M-69,393.1c-0.6,0.2-3.1-0.1-3.7-0.1c-0.3,0-0.8-0.1-1,0c-0.5,0.1-1.5-0.1-1.5-0.1s-1,0-1.1,0
			c-1.5,0.1-2.8-0.1-4.3,0.1c-0.3,0.1-0.8,0-1.1,0c-0.3,0-2.4,0-2.8,0c-0.2,0-2.2,0.2-2.4,0.2c-0.7,0-2.7,0.1-2.7,0.1
			s0.1-0.7,0.4-0.7c0.2,0,1.1,0,1.4,0c0.4,0,4.3-0.3,5.1-0.2c0.4,0,0.8,0.1,1.1,0c0.3-0.1,0.7,0.1,1.1,0.1c0.1,0,0.3-0.1,0.4-0.1
			c0.8-0.1,6.2,0.3,6.8,0.2c0.5,0.1,6.1-0.2,6.9,0.1c1-0.1,2.9,0,3-0.1c0.4,0,1.4,0,2.4,0v-0.4c-0.2,0-0.4,0-0.5,0
			c-0.4-0.1-1.3,0-2-0.1c-0.6-0.1-5.2-0.2-6.4-0.3l-0.4-0.1l-2.6-2.1l-0.4-0.2c0,0-2-1.7-2.8-2.2h-0.1c-0.4-0.2-0.9-0.2-1.4-0.2
			c0.5,0.3,1.4,0.8,1.7,0.9c0.4,0.5,1.5,1.1,1.5,1.1l2.3,1.9c0,0,0.3,0.1,0.3,0.4c-0.3-0.1-0.4,0-0.4,0l-2.7-2c0,0-2.7-2-3.2-2.2
			c-0.1,0-0.1,0-0.2,0c-0.2,0-0.7,0-1-0.1l0,0c0.1,0,0.1,0,0.1,0s0,0,0.1,0c1,0.4,3.2,1.8,3.6,2.3c0.4,0.3,2.5,1.9,2.6,1.9
			c-0.2,0-0.3,0.1-0.6,0c0-0.2-1.2-1.1-1.2-1.1c-0.6-0.4-1.2-0.5-1.6-1.1c-0.1,0-3.1-1.9-3.5-2.2c-0.1,0-0.2,0-0.4,0.1
			c0.2,0.3,0.3,0.3,0.5,0.4c0.7,0.7,2.3,1.6,2.5,1.7c0.4,0.2,3,2.4,3,2.4H-75l-3.2-2.4c0-0.1-1.6-1.3-2-1.4
			c-0.4-0.4-1.3-0.9-1.3-0.9h-0.4c0,0,1.4,1.2,2,1.4c0.1,0.1,0.5,0.5,0.7,0.6c0.1-0.1,1.3,1.1,1.5,1.1c0.1,0.4,1.9,1.2,1.8,1.5
			c-0.2-0.1-0.7,0-0.9,0c-0.1-0.2-0.1-0.1-0.2-0.2c0,0-1.3-1.4-2.3-2.1c-0.2-0.1-0.5-0.4-0.6-0.4c-0.5-0.6-1.6-1.2-1.6-1.2
			s-0.7-0.5-1.1-0.6c-0.2,0-0.4-0.1-0.5,0c0.1,0.2,0.9,0.7,0.9,0.7l1.2,1l0.7,0.6c0.3,0.4,0.8,0.8,1.2,1.1c0.1,0,0.4,0.4,0.6,0.4
			c0.1,0.2,1,0.8,0.6,0.9c-0.3,0.1-0.5,0-0.8,0c0-0.3-1.5-1.1-1.9-1.7l-0.1-0.1c-0.4-0.5-1.2-1.3-1.2-1.3c-0.1-0.1-0.7-0.6-0.8-0.7
			c-0.5-0.4-1.1-0.6-1.3-1.2c-0.4,0-0.7,0-0.9,0.1c0.2,0.6,1,0.6,1.4,1.1c0-0.1,1.5,1.4,2.3,1.8l0.7,0.7c0.4,0.5,1.2,1,1.2,1.3
			c-0.3-0.1-0.1,0.1-0.4,0c-0.4-0.6-3-2.7-3.4-2.8c-0.4-0.6-1.1-0.8-1.6-1.4c-0.4,0-0.6-0.3-0.8-0.5c-0.2-0.1-0.5,0-0.8,0
			c0,0.1,0,0.2,0.1,0.2c0.2,0.2,0.4,0.3,0.6,0.5l0,0c0.2,0,1.1,0.6,1.6,1.1l0,0c0.1,0.1,0.1,0.1,0.2,0.2l0,0
			c0.8,0.7,3.1,2.4,3.6,2.8c-0.2,0.1-0.7,0-0.7,0s-3-2.4-3.3-2.9l0,0c-0.2-0.2-0.4-0.3-0.6-0.4c0-0.1-0.6-0.4-0.8-0.7
			c-0.4-0.2-1.1-0.7-1.3-0.8l0,0c-0.2,0-0.4,0.1-0.6,0.1c0.1,0.5,2.5,1.6,2.6,1.8c0.8,0.5,1.5,1.1,2.2,1.8c0.1,0.3,0.4,0.6,0.7,0.9
			c-0.2-0.1-0.1,0.1-0.2,0.1c-0.5,0-1.2-0.9-1.3-1.1c-0.1,0-0.6-0.4-0.7-0.6l-2.6-1.9c-0.5-0.3-1.3-0.7-1.7-1.1c-0.3,0-0.6,0-0.7,0
			c0,0.1,0.4,0.3,0.3,0.4c1,0.3,3.2,2.1,3.7,2.4c0.3,0.4,0.6,0.8,1.1,1c0.3,0.5,0.9,0.8,1.1,1.2c-0.3-0.1-0.6-0.5-0.8-0.3
			c-0.1-0.2-1.7-1.5-2.3-2.2c-0.2,0-1.1-0.8-1.1-0.8s-1-0.5-1.3-0.6c-0.1-0.1-0.6-0.4-0.7-0.5c-0.2-0.1-0.4-0.1-0.6-0.2
			c-0.3-0.1-0.5-0.4-0.8-0.2c0.2,0.2,0.3,0.3,0.6,0.4c0.3,0.4,0.8,0.6,1.3,0.9c0.5,0.4,1.5,1,1.5,1l0.6,0.4c0,0,1.9,1.4,1.9,2.2
			h-0.2c0,0-0.1-0.1-0.2-0.2c-0.1-0.1-0.7-0.7-1.2-1c-0.1-0.4-1.2-0.9-1.3-1.1c0,0-1.2-0.9-2-1.4l-1.1-0.7c0,0-0.6-0.4-0.6-0.5
			c-0.5,0-0.9,0-1.2,0c-0.2,0-0.5-0.1-0.5,0.2c0.4,0.1,1.1,0.7,1.1,0.7s0.8,0.5,1.3,0.9c0.2,0.3,0.8,0.6,0.9,0.8
			c0.6,0.3,2.7,2.2,2.9,2.2c0.1,0.2,0.2,0.2,0.3,0.4c-0.1,0-0.4-0.1-0.5-0.1c-0.2-0.5-1.1-0.9-1.3-0.9c-0.3-0.4-1.3-1.1-1.5-1.2
			c-0.2-0.8-2-2-2.1-2c-0.5-0.6-1.4-0.8-2-1.3c-0.3,0.1-0.5,0-0.8,0.1c0.1,0.1,0.2,0.2,0.2,0.4c1,0.3,1.8,0.9,2.6,1.4
			c0.1,0.3,2.5,1.9,2.6,2c0.3,0.5,1.2,0.6,1.3,1.2c-0.2-0.1-0.6-0.1-0.6-0.1c-1.5-1.3-3-2.6-4.7-3.6c-0.1,0-1-0.7-1.3-0.6
			c0,0-0.1,0.1,0,0.1c0.6,0.3,1.7,1.2,1.7,1.2c0.9,0.7,2.7,2.1,2.7,2.2c0.3,0.1,0.5,0.3,0.7,0.5c0.2,0.3,0.2,0.2,0.1,0.4
			c-0.1-0.1-0.3,0-0.5,0.1c-0.2,0.7-0.4,0.9-0.2,1.8c0,0.2,0,0.2,0.2,0.4c0.2,0.1,1,0.2,1.5,0c-0.2,0.6-1.5,1.3-1.6,1.3
			c-0.7,0.4-1.1,1-1.7,1.5H-92c-0.8,0.7-1.8,1.3-3,1.7c0,0,0.4,0.3,0.6,0.3c0.1,0,0.2-0.2,0.4-0.3c0.2-0.1,0.5-0.2,0.8-0.3
			c0.1-0.1,0.4-0.2,0.5-0.3c0.3-0.2,0.9-0.6,1-0.6c1-0.9,2.1-1.5,3-2.4c0.1,0,0.9-0.5,1.2-0.7c0-0.2,0.2-0.1,0.3-0.1
			c-0.1,0.1,0,0.1-0.1,0.3c0,0-0.4,0.2-0.5,0.4c-1.1,0.8-1.9,1.6-3.1,2.4l-0.5,0.4c-0.8,0.5-1.9,1.2-2,1.2c-0.3,0,1.3,0,1.8,0.1
			c0.2-0.2,0.4-0.2,0.5-0.5c0.5-0.2,5.5-3.9,6.1-4.5h0.6c-0.4,0.3-0.9,0.6-0.8,0.8c-0.6,0.4-1.7,1.5-1.8,1.5s-2.2,1.4-2.4,1.6
			c-0.4,0.3-0.8,0.5-1.2,0.7c-0.1,0.2-0.3,0.2-0.4,0.3c0.6,0.3,0.2,0.4,0.7,0.1c0.5-0.2,2.7-1.5,2.7-1.5l2.6-2.1c0,0,0.7-0.6,1-0.9
			c0.1,0.1,0.4-0.3,0.4-0.4h0.4h0.1l-0.5,0.5l-2,1.8c0,0-1.9,1.3-2.2,1.7c-0.2-0.2-1.6,0.3-1.6,0.7c0.2,0.1,0.3-0.1,0.6,0
			c0.3-0.1,1.1-0.6,1.2-0.6c0.5-0.3,0.9-0.7,1.5-1c0.6-0.3,1.2-0.9,1.9-1.3c0.1-0.1,1.5-1.7,1.5-1.7s0.4-0.2,0.7-0.2
			c0,0.1,0.1,0.1,0.1,0.2c-0.4,0.4-1,1.2-1.1,1.3c-0.8,0.6-2.5,2.1-2.8,2.1c-0.3,0.4-1.9,1.1-2,1.7c0.1,0,0.4,0,0.6,0.1
			c0,0,0,0,0.1-0.1c0.1,0,6.4-5.1,6.4-5.1s0,0,0-0.1h0.7c-0.3,0.3-0.7,0.4-0.9,0.8c-0.5,0.2-5,3.8-6,4.6c0,0,0,0,0.1,0.1
			c0.9,0,0.9-0.8,1.7-0.8c0.8-0.8,1.8-1.2,2.5-2.1c0.6-0.5,1.2-0.9,1.9-1.3c0-0.1,0.8-0.6,0.8-0.6c0.3-0.1,0.1,0,0.3,0.2
			c-0.3,0.1-0.5,0.3-0.6,0.6c-0.1,0-3,2.5-3.1,2.5c-0.2,0.4-1.5,1-1.7,1.5c0,0,0.5,0.1,0.5,0.2c0.4-0.2,4.1-3.8,4.6-3.8
			c0.2-0.5,1-0.8,1.2-0.8c0.1-0.2,0.5-0.4,0.6,0c-0.1,0.2-1.3,1.2-1.4,1.2c-0.6,0.2-3.7,2.9-4.2,3.4c0.2,0,0.3,0,0.4,0
			c0.3,0,4.2-3.3,4.9-3.8l0.9-0.7c0.3-0.4,1-0.8,1-0.8h0.7l-0.2-0.2l-0.9,0.6c-0.3-0.2-2.8,2.1-2.8,2.1s-1.8,1.5-2.4,1.9
			c0,0.3,0.4,0.2,0.4,0.2s1.7-1.5,2.4-1.8c0.4-0.4,2.3-1.5,2.7-2c0.2,0,0.9-0.6,0.9-0.6s0.4-0.3,0.9-0.5c0,0.1,0.2,0.1,0.4,0.2
			c-0.3,0.2-0.8,0.7-0.8,0.7l-1.6,1.1c0,0-0.8,0.7-1.1,0.8c-0.1,0-3.1,1.7-3,2.1c0.3,0,0.4,0,0.6,0c0.5-0.3,1.7-1.2,3.1-2.1
			c2-1.4,3.5-2.5,3.9-2.7c0.4-0.2,0.6,0.1,0.6,0.1c-0.1,0.1-1.4,1.1-2.8,2.1c-0.3,0.2-0.5,0.4-0.8,0.6c-1.2,0.9-2.4,1.7-3,2.1
			c0.2,0,0.3,0,0.3,0c0.4-0.1,0.6-0.1,0.8-0.1c0.7-0.5,3.9-2.9,4.4-3.3c0.1-0.4,1.9-1.6,1.9-1.6c0.3,0,0.6,0,0.6,0l-3,2.5
			c0,0-0.4,0.1-0.7,0.5c-0.5,0.2-1.6,1.1-2,1.7c0.1,0,0.8,0.1,1.1,0.1c0.4-0.4,1.5-1.7,2-1.9c0-0.1,3.2-2.5,3.3-2.8
			c0.1,0,0.2-0.1,0.3-0.1c0.9,0,5.5,0.2,5.6,0.2s3.3-0.1,3.7,0l0,0v-1.3C-63.8,393.1-68.4,393.1-69,393.1z M-86.9,390.9
			c0,0-1.1-0.8-1.3-1.2l-2.3-1.6c-0.1-0.1-1.1-0.5-1.3-1c0.4,0,0.6,0.1,0.9,0.3c0.6,0.1,4.8,3.8,5.4,4.4c-0.1,0-0.3,0-0.3,0
			C-86.1,391.5-86.5,391.1-86.9,390.9z M-86.9,395c-0.2,0.3-4.3,3.3-4.4,3.3c-0.1,0.1-0.6,0.4-0.6,0.4h-0.4l-0.2-0.1
			c0,0,0.9-0.5,1.2-0.8l1.1-0.6c0.3-0.1,0.8-0.9,1.5-1.1c0.1-0.2,2.1-1.7,2.3-1.9c0.1,0,0,0,0.3,0C-86.2,394.3-86.7,395-86.9,395z"
			/>
		<path fill="#5B585A" d="M5.1,392.9c-0.5-0.2-0.3-0.2-1-0.2c-1.3-0.1-4.6-0.9-4.8-0.9c-0.5-0.1-5.7-1.6-5.9-1.6
			c-0.2-0.1-5.1-1.8-5.1-1.8s-1.9-1.4-2.1-1.4c-0.2-0.2-1.1,0-0.6,0.9c0.7,0.9,0.7,1.2,1.7,2.3c0.2,0.3,1.2,1.8,0.9,1.9
			c-1.1-0.1-1.9,0.1-3.1,0c-0.1,0-0.5,0-0.6,0c-0.4,0.1-5.5,0-5.5,0l-2,0.1c0,0-6-0.1-6.4-0.1c-0.1,0.2-0.6,0.1-0.7,0.1
			c-0.5,0-2.6,0.2-2.8,0.2s-0.9-0.1-1.7-0.1s-1.7,0-2.1,0c-0.1,0-0.6,0-0.7,0c-0.7-0.2-3.6,0-4,0c-0.5,0-1.1,0.1-1.5,0.1
			c-0.2,0-0.4-0.1-0.6-0.1c-0.1,0-0.2,0-0.3,0c-0.2,0-0.5,0-0.7,0c-0.1,0-0.8,0-1.1,0c-1,0-2.1-0.2-3-0.2c-0.6,0.3-1.9,0.2-1.9,0.1
			c-0.6,0.1-1.2-0.1-1.6,0.1c-0.1-0.1-0.6-0.1-1.1,0v0.4c0.3,0,0.6,0.1,0.9,0c0.3-0.1,1.3,0,1.4,0c0,0,0.1,0,0.2,0
			c1.2,0,5.8,0.2,6.3,0.1c0.5,0,5.8-0.2,6.6,0c0.4,0,0.9,0,1.4-0.1c0.7,0,1.4,0,1.4,0c0.8-0.1,4.4,0.1,4.7-0.1
			c0.6,0.1,3.1,0.1,3.1,0.1s1,0.2,1.5,0c0.6,0.1,1.3,0.1,1.9,0c1,0.3,2.9,0.2,2.9,0.2s2.4-0.1,2.9,0c0.1,0,0.2,0.2,0,0.4
			c-0.1-0.1-1,0-1.2,0c-0.3,0-0.7,0.1-1,0.1c-0.2,0-9.7-0.1-10.4,0c0-0.1-5.4,0-5.8,0.1c-0.2,0-0.8,0-1.1,0l0,0
			c-0.9-0.1-1.8-0.1-2.6-0.1c-0.5,0.1-2.2,0.1-2.8,0.1c-0.3,0-1.3-0.1-1.5-0.1c-0.5,0.1-0.9,0-0.9,0s-0.9,0-1,0
			c-1.2,0.1-2.2,0-3.4,0.1c-0.2,0-0.5,0-0.7,0.1c-0.3,0.1-1.4,0-1.7,0c-0.1,0-0.5,0-1-0.1v1.1c0.8,0,1.7-0.1,2.5-0.1
			c0.3,0,1.7,0,2.1,0c0.1,0,2,0,3,0c0.4,0,0.7,0,0.7,0s1.6,0,2.3,0c1.1,0,1.9,0.1,2.9-0.1c0.2,0.1,0.8,0.1,1,0
			c1.8,0.2,3.6,0.1,4.4,0.1c0.1,0,0.1,0,0.2,0c0.1,0,0.1-0.1,0.2-0.1c1,0,7.3,0,8,0c0.2,0,0.7,0,0.7,0s0.9,0,1.2,0.1
			c1.3-0.2,6.7,0,7.8-0.1c0.7,0,4.5,0,4.7,0c0.1,0.1,0.8,0.1,0.3,0.8c0,0-2.9,3.4-3.4,3.8c0,0.2,0,0.6,0.5,0.5
			c0.4-0.4,1.9-0.7,2.3-1l5.9-2.1l3.9-1.2c0.7,0,6-1.6,6-1.6S5.7,393.1,5.1,392.9z M-8.2,393c0.5,0.1,2.9,0.1,3.6,0.1
			c0,0.3,0-0.1-0.2,0.2c-0.9,0.1-3,0.4-3.8,0.4C-8.7,393.4-8.8,393.1-8.2,393z M-12.6,393.3c-0.2-0.1-0.7,0-0.8,0
			c-0.4-0.1-2.5,0.1-2.8-0.1c-0.5,0.1-1,0.1-1.5,0c0.1-0.1,0-0.3,0-0.4c0.4,0.1,0.7,0,1.1,0c0.7-0.1,3.6,0.1,3.7,0
			c0.1,0,0.2,0,0.3,0.1C-12.4,393-12.6,393.1-12.6,393.3z M-11.8,393.3c-0.1-0.1,0-0.3,0-0.5c0.2-0.1,0.9,0.1,1,0.2
			C-10.9,393.4-11.5,393.2-11.8,393.3z M0.2,393.7c-0.2,0-0.3,0.1-0.5,0c-0.5,0.3-1.2,0.3-1.9,0.5c-0.4,0.1-1.5,0.5-1.7,0.5
			c-0.6,0.2-1.3,0.4-1.8,0.6c-0.1,0.1-0.2,0.2-0.4,0.2c-0.3,0.1-0.5,0-0.7,0.1c-0.1,0-0.1,0.1-0.3,0.2c-0.3,0.1-0.6,0.1-0.9,0.4
			c-0.4,0-1.7,0.7-2.2,0.7c-0.3,0-0.6,0.5-0.9,0.2c0.1-0.3,0.5-0.4,0.7-0.7c1-0.5,2.1-0.8,3.1-1.3c0.1,0,0.4-0.1,0.5-0.2
			c0.5,0,1-0.2,1.5-0.4c0.2,0.1,4.7-1,4.8-1c0.2,0,0.4,0.1,0.6,0.1s0.5-0.2,0.5,0.2C0.5,393.9,0.3,393.8,0.2,393.7z"/>
	</g>
</g>
<polygon fill="#5B585A" points="-93.9,386.8 -90.2,386.8 -85.3,386.7 -84,386.5 -79.9,386.9 -76.2,387.2 -70.4,391.7 -60.5,392.3 
	-11,392.4 2.6,392.9 0.8,394.1 -12.5,398.2 -9.8,393.8 -70.5,393.8 -77,399 -84.5,399.5 -86.8,399.5 -90.6,399.2 -94.4,399 
	-94.8,398.5 -93.8,398.3 -91.8,397.1 -87.5,393.8 -89.7,393.7 -89.6,392.1 -88,391.8 -89,391.8 -89.7,390.9 -94.4,387.5 -94.6,387 
	"/>
</svg>
